Pattern Recognition With Tracker Data
…
HourCalo$ActivityHour <- as.Date(HourCalo$ActivityHour, format = "%m/%d/%Y")

HourCalo %>%
  group_by(Id, ActivityHour) %>%
  summarise(sum(Calories))

## `summarise()` has grouped output by 'Id'. You can override using the `.groups` argument.

## # A tibble: 934 x 3
## # Groups:   Id [33]
##            Id ActivityHour `sum(Calories)`
##         <dbl> <date>                 <dbl>
##  1 1503960366 2016-04-12              1988
##  2 1503960366 2016-04-13              1798
##  3 1503960366 2016-04-14              1776
##  4 1503960366 2016-04-15              1745
##  5 1503960366 2016-04-16              1866
##  6 1503960366 2016-04-17              1730
##  7 1503960366 2016-04-18              1920
##  8 1503960366 2016-04-19              2034
##  9 1503960366 2016-04-20              1785
## 10 1503960366 2016-04-21              1777
## # ... with 924 more rows
…
HourStep$ActivityHour <- as.Date(HourStep$ActivityHour, format =  "%m/%d/%Y")

HourStep %>%
  group_by(Id, ActivityHour) %>%
  summarise(sum(StepTotal))

## `summarise()` has grouped output by 'Id'. You can override using the `.groups` argument.

## # A tibble: 934 x 3
## # Groups:   Id [33]
##            Id ActivityHour `sum(StepTotal)`
##         <dbl> <date>                  <dbl>
##  1 1503960366 2016-04-12              13158
##  2 1503960366 2016-04-13              10735
##  3 1503960366 2016-04-14              10460
##  4 1503960366 2016-04-15               9685
##  5 1503960366 2016-04-16              12669
##  6 1503960366 2016-04-17               9705
##  7 1503960366 2016-04-18              13019
##  8 1503960366 2016-04-19              15506
##  9 1503960366 2016-04-20              10544
## 10 1503960366 2016-04-21               9819
## # ... with 924 more rows
…
